[
    {
        "identifier": {
            "id": "ms-vscode.remote-server"
        },
        "version": "1.0.0",
        "preRelease": false,
        "pinned": false
    },
    {
        "identifier": {
            "id": "vscode.bat"
        },
        "version": "1.0.0",
        "preRelease": false,
        "pinned": false
    },
    {
        "identifier": {
            "id": "vscode.builtin-notebook-renderers"
        },
        "version": "1.0.0",
        "preRelease": false,
        "pinned": false
    },
    {
        "identifier": {
            "id": "vscode.clojure"
        },
        "version": "1.0.0",
        "preRelease": false,
        "pinned": false
    },
    {
        "identifier": {
            "id": "vscode.coffeescript"
        },
        "version": "1.0.0",
        "preRelease": false,
        "pinned": false
    },
    {
        "identifier": {
            "id": "vscode.configuration-editing"
        },
        "version": "1.0.0",
        "preRelease": false,
        "pinned": false
    },
    {
        "identifier": {
            "id": "vscode.cpp"
        },
        "version": "1.0.0",
        "preRelease": false,
        "pinned": false
    },
    {
        "identifier": {
            "id": "vscode.csharp"
        },
        "version": "1.0.0",
        "preRelease": false,
        "pinned": false
    },
    {
        "identifier": {
            "id": "vscode.css"
        },
        "version": "1.0.0",
        "preRelease": false,
        "pinned": false
    },
    {
        "identifier": {
            "id": "vscode.css-language-features"
        },
        "version": "1.0.0",
        "preRelease": false,
        "pinned": false
    },
    {
        "identifier": {
            "id": "vscode.dart"
        },
        "version": "1.0.0",
        "preRelease": false,
        "pinned": false
    },
    {
        "identifier": {
            "id": "vscode.debug-auto-launch"
        },
        "version": "1.0.0",
        "preRelease": false,
        "pinned": false
    },
    {
        "identifier": {
            "id": "vscode.debug-server-ready"
        },
        "version": "1.0.0",
        "preRelease": false,
        "pinned": false
    },
    {
        "identifier": {
            "id": "vscode.diff"
        },
        "version": "1.0.0",
        "preRelease": false,
        "pinned": false
    },
    {
        "identifier": {
            "id": "vscode.docker"
        },
        "version": "1.0.0",
        "preRelease": false,
        "pinned": false
    },
    {
        "identifier": {
            "id": "vscode.emmet"
        },
        "version": "1.0.0",
        "preRelease": false,
        "pinned": false
    },
    {
        "identifier": {
            "id": "vscode.extension-editing"
        },
        "version": "1.0.0",
        "preRelease": false,
        "pinned": false
    },
    {
        "identifier": {
            "id": "vscode.fsharp"
        },
        "version": "1.0.0",
        "preRelease": false,
        "pinned": false
    },
    {
        "identifier": {
            "id": "vscode.git"
        },
        "version": "1.0.0",
        "preRelease": false,
        "pinned": false
    },
    {
        "identifier": {
            "id": "vscode.git-base"
        },
        "version": "1.0.0",
        "preRelease": false,
        "pinned": false
    },
    {
        "identifier": {
            "id": "vscode.github"
        },
        "version": "0.0.1",
        "preRelease": false,
        "pinned": false
    },
    {
        "identifier": {
            "id": "vscode.github-authentication"
        },
        "version": "0.0.2",
        "preRelease": false,
        "pinned": false
    },
    {
        "identifier": {
            "id": "vscode.go"
        },
        "version": "1.0.0",
        "preRelease": false,
        "pinned": false
    },
    {
        "identifier": {
            "id": "vscode.groovy"
        },
        "version": "1.0.0",
        "preRelease": false,
        "pinned": false
    },
    {
        "identifier": {
            "id": "vscode.grunt"
        },
        "version": "1.0.0",
        "preRelease": false,
        "pinned": false
    },
    {
        "identifier": {
            "id": "vscode.gulp"
        },
        "version": "1.0.0",
        "preRelease": false,
        "pinned": false
    },
    {
        "identifier": {
            "id": "vscode.handlebars"
        },
        "version": "1.0.0",
        "preRelease": false,
        "pinned": false
    },
    {
        "identifier": {
            "id": "vscode.hlsl"
        },
        "version": "1.0.0",
        "preRelease": false,
        "pinned": false
    },
    {
        "identifier": {
            "id": "vscode.html"
        },
        "version": "1.0.0",
        "preRelease": false,
        "pinned": false
    },
    {
        "identifier": {
            "id": "vscode.html-language-features"
        },
        "version": "1.0.0",
        "preRelease": false,
        "pinned": false
    },
    {
        "identifier": {
            "id": "vscode.ini"
        },
        "version": "1.0.0",
        "preRelease": false,
        "pinned": false
    },
    {
        "identifier": {
            "id": "vscode.ipynb"
        },
        "version": "1.0.0",
        "preRelease": false,
        "pinned": false
    },
    {
        "identifier": {
            "id": "vscode.jake"
        },
        "version": "1.0.0",
        "preRelease": false,
        "pinned": false
    },
    {
        "identifier": {
            "id": "vscode.java"
        },
        "version": "1.0.0",
        "preRelease": false,
        "pinned": false
    },
    {
        "identifier": {
            "id": "vscode.javascript"
        },
        "version": "1.0.0",
        "preRelease": false,
        "pinned": false
    },
    {
        "identifier": {
            "id": "vscode.json"
        },
        "version": "1.0.0",
        "preRelease": false,
        "pinned": false
    },
    {
        "identifier": {
            "id": "vscode.json-language-features"
        },
        "version": "1.0.0",
        "preRelease": false,
        "pinned": false
    },
    {
        "identifier": {
            "id": "vscode.julia"
        },
        "version": "1.0.0",
        "preRelease": false,
        "pinned": false
    },
    {
        "identifier": {
            "id": "vscode.latex"
        },
        "version": "1.0.0",
        "preRelease": false,
        "pinned": false
    },
    {
        "identifier": {
            "id": "vscode.less"
        },
        "version": "1.0.0",
        "preRelease": false,
        "pinned": false
    },
    {
        "identifier": {
            "id": "vscode.log"
        },
        "version": "1.0.0",
        "preRelease": false,
        "pinned": false
    },
    {
        "identifier": {
            "id": "vscode.lua"
        },
        "version": "1.0.0",
        "preRelease": false,
        "pinned": false
    },
    {
        "identifier": {
            "id": "vscode.make"
        },
        "version": "1.0.0",
        "preRelease": false,
        "pinned": false
    },
    {
        "identifier": {
            "id": "vscode.markdown"
        },
        "version": "1.0.0",
        "preRelease": false,
        "pinned": false
    },
    {
        "identifier": {
            "id": "vscode.markdown-language-features"
        },
        "version": "1.0.0",
        "preRelease": false,
        "pinned": false
    },
    {
        "identifier": {
            "id": "vscode.markdown-math"
        },
        "version": "1.0.0",
        "preRelease": false,
        "pinned": false
    },
    {
        "identifier": {
            "id": "vscode.media-preview"
        },
        "version": "1.0.0",
        "preRelease": false,
        "pinned": false
    },
    {
        "identifier": {
            "id": "vscode.merge-conflict"
        },
        "version": "1.0.0",
        "preRelease": false,
        "pinned": false
    },
    {
        "identifier": {
            "id": "vscode.microsoft-authentication"
        },
        "version": "0.0.1",
        "preRelease": false,
        "pinned": false
    },
    {
        "identifier": {
            "id": "vscode.npm"
        },
        "version": "1.0.1",
        "preRelease": false,
        "pinned": false
    },
    {
        "identifier": {
            "id": "vscode.objective-c"
        },
        "version": "1.0.0",
        "preRelease": false,
        "pinned": false
    },
    {
        "identifier": {
            "id": "vscode.perl"
        },
        "version": "1.0.0",
        "preRelease": false,
        "pinned": false
    },
    {
        "identifier": {
            "id": "vscode.php"
        },
        "version": "1.0.0",
        "preRelease": false,
        "pinned": false
    },
    {
        "identifier": {
            "id": "vscode.php-language-features"
        },
        "version": "1.0.0",
        "preRelease": false,
        "pinned": false
    },
    {
        "identifier": {
            "id": "vscode.powershell"
        },
        "version": "1.0.0",
        "preRelease": false,
        "pinned": false
    },
    {
        "identifier": {
            "id": "vscode.pug"
        },
        "version": "1.0.0",
        "preRelease": false,
        "pinned": false
    },
    {
        "identifier": {
            "id": "vscode.python"
        },
        "version": "1.0.0",
        "preRelease": false,
        "pinned": false
    },
    {
        "identifier": {
            "id": "vscode.r"
        },
        "version": "1.0.0",
        "preRelease": false,
        "pinned": false
    },
    {
        "identifier": {
            "id": "vscode.razor"
        },
        "version": "1.0.0",
        "preRelease": false,
        "pinned": false
    },
    {
        "identifier": {
            "id": "vscode.references-view"
        },
        "version": "1.0.0",
        "preRelease": false,
        "pinned": false
    },
    {
        "identifier": {
            "id": "vscode.restructuredtext"
        },
        "version": "1.0.0",
        "preRelease": false,
        "pinned": false
    },
    {
        "identifier": {
            "id": "vscode.ruby"
        },
        "version": "1.0.0",
        "preRelease": false,
        "pinned": false
    },
    {
        "identifier": {
            "id": "vscode.rust"
        },
        "version": "1.0.0",
        "preRelease": false,
        "pinned": false
    },
    {
        "identifier": {
            "id": "vscode.scss"
        },
        "version": "1.0.0",
        "preRelease": false,
        "pinned": false
    },
    {
        "identifier": {
            "id": "vscode.search-result"
        },
        "version": "1.0.0",
        "preRelease": false,
        "pinned": false
    },
    {
        "identifier": {
            "id": "vscode.shaderlab"
        },
        "version": "1.0.0",
        "preRelease": false,
        "pinned": false
    },
    {
        "identifier": {
            "id": "vscode.shellscript"
        },
        "version": "1.0.0",
        "preRelease": false,
        "pinned": false
    },
    {
        "identifier": {
            "id": "vscode.simple-browser"
        },
        "version": "1.0.0",
        "preRelease": false,
        "pinned": false
    },
    {
        "identifier": {
            "id": "vscode.sql"
        },
        "version": "1.0.0",
        "preRelease": false,
        "pinned": false
    },
    {
        "identifier": {
            "id": "vscode.swift"
        },
        "version": "1.0.0",
        "preRelease": false,
        "pinned": false
    },
    {
        "identifier": {
            "id": "vscode.theme-abyss"
        },
        "version": "1.0.0",
        "preRelease": false,
        "pinned": false
    },
    {
        "identifier": {
            "id": "vscode.theme-defaults"
        },
        "version": "1.0.0",
        "preRelease": false,
        "pinned": false
    },
    {
        "identifier": {
            "id": "vscode.theme-kimbie-dark"
        },
        "version": "1.0.0",
        "preRelease": false,
        "pinned": false
    },
    {
        "identifier": {
            "id": "vscode.theme-monokai"
        },
        "version": "1.0.0",
        "preRelease": false,
        "pinned": false
    },
    {
        "identifier": {
            "id": "vscode.theme-monokai-dimmed"
        },
        "version": "1.0.0",
        "preRelease": false,
        "pinned": false
    },
    {
        "identifier": {
            "id": "vscode.theme-quietlight"
        },
        "version": "1.0.0",
        "preRelease": false,
        "pinned": false
    },
    {
        "identifier": {
            "id": "vscode.theme-red"
        },
        "version": "1.0.0",
        "preRelease": false,
        "pinned": false
    },
    {
        "identifier": {
            "id": "vscode.theme-solarized-dark"
        },
        "version": "1.0.0",
        "preRelease": false,
        "pinned": false
    },
    {
        "identifier": {
            "id": "vscode.theme-solarized-light"
        },
        "version": "1.0.0",
        "preRelease": false,
        "pinned": false
    },
    {
        "identifier": {
            "id": "vscode.theme-tomorrow-night-blue"
        },
        "version": "1.0.0",
        "preRelease": false,
        "pinned": false
    },
    {
        "identifier": {
            "id": "vscode.typescript"
        },
        "version": "1.0.0",
        "preRelease": false,
        "pinned": false
    },
    {
        "identifier": {
            "id": "vscode.typescript-language-features"
        },
        "version": "1.0.0",
        "preRelease": false,
        "pinned": false
    },
    {
        "identifier": {
            "id": "vscode.vb"
        },
        "version": "1.0.0",
        "preRelease": false,
        "pinned": false
    },
    {
        "identifier": {
            "id": "vscode.vscode-theme-seti"
        },
        "version": "1.0.0",
        "preRelease": false,
        "pinned": false
    },
    {
        "identifier": {
            "id": "vscode.xml"
        },
        "version": "1.0.0",
        "preRelease": false,
        "pinned": false
    },
    {
        "identifier": {
            "id": "vscode.yaml"
        },
        "version": "1.0.0",
        "preRelease": false,
        "pinned": false
    },
    {
        "identifier": {
            "id": "4tron.stack-overflow-view",
            "uuid": "46b02efb-70c0-47be-81e3-e42cfb91450e"
        },
        "version": "0.1.1",
        "preRelease": false,
        "pinned": false,
        "installed": true
    },
    {
        "identifier": {
            "id": "aaron-bond.better-comments",
            "uuid": "7a0110bb-231a-4598-aa1b-0769ea46d28b"
        },
        "version": "3.0.2",
        "preRelease": false,
        "pinned": false,
        "installed": true
    },
    {
        "identifier": {
            "id": "ahmadawais.shades-of-purple",
            "uuid": "431aa1a8-74f4-43d5-a83b-f4960510da5f"
        },
        "version": "7.1.5",
        "preRelease": false,
        "pinned": false,
        "installed": true
    },
    {
        "identifier": {
            "id": "alefragnani.project-manager",
            "uuid": "1b747f06-3789-4ebd-ac99-f1fe430c3347"
        },
        "version": "12.7.0",
        "preRelease": false,
        "pinned": false,
        "installed": true
    },
    {
        "identifier": {
            "id": "alexcvzz.vscode-sqlite",
            "uuid": "eaee103c-e866-4b73-87f8-3749cab64da2"
        },
        "version": "0.14.1",
        "preRelease": false,
        "pinned": false,
        "installed": true
    },
    {
        "identifier": {
            "id": "allanoricil.nuxt-vscode-extension",
            "uuid": "c3590016-b8fd-4029-b16e-960c7d917c5a"
        },
        "version": "0.0.21",
        "preRelease": false,
        "pinned": false,
        "installed": true
    },
    {
        "identifier": {
            "id": "amatiasq.sort-imports",
            "uuid": "6c0f990e-512c-4b25-a01e-0d6578f0b42a"
        },
        "version": "6.3.1",
        "preRelease": false,
        "pinned": false,
        "installed": true
    },
    {
        "identifier": {
            "id": "amin.omodoro",
            "uuid": "04c44aff-9ff8-4101-8d7f-a16435b7b414"
        },
        "version": "0.4.0",
        "preRelease": false,
        "pinned": false,
        "installed": true
    },
    {
        "identifier": {
            "id": "andenetalexander.vim-cheatsheet",
            "uuid": "44fa5d50-e2da-44ec-9a99-2ac839c51a64"
        },
        "version": "0.0.1",
        "preRelease": false,
        "pinned": false,
        "installed": true
    },
    {
        "identifier": {
            "id": "ardevia.sculptui-vscode",
            "uuid": "57fe4da2-19d7-4abd-b44a-ecbcbcd7f848"
        },
        "version": "0.7.1",
        "preRelease": false,
        "pinned": false,
        "installed": true
    },
    {
        "identifier": {
            "id": "arun92phoenix.notes-extension",
            "uuid": "35ece70a-0991-45a8-ae65-84116c25c2db"
        },
        "version": "0.1.0",
        "preRelease": false,
        "pinned": false,
        "installed": true
    },
    {
        "identifier": {
            "id": "asciidoctor.asciidoctor-vscode",
            "uuid": "c1309cc2-f420-46a3-b2be-ca04f4d9e51b"
        },
        "version": "2.9.8",
        "preRelease": false,
        "pinned": false,
        "installed": true
    },
    {
        "identifier": {
            "id": "asvetliakov.snapshot-tools",
            "uuid": "b80129ef-d190-4ffd-80bf-7ebd643d53d1"
        },
        "version": "0.4.0",
        "preRelease": false,
        "pinned": false,
        "installed": true
    },
    {
        "identifier": {
            "id": "asvetliakov.vscode-neovim",
            "uuid": "caf8995c-5426-4bf7-9d01-f7968ebd49bb"
        },
        "version": "0.0.97",
        "preRelease": false,
        "pinned": false,
        "installed": true
    },
    {
        "identifier": {
            "id": "atanasster.instant-documentation-vscode",
            "uuid": "ad351cb8-1510-4a84-bb47-ecb1b52f2f79"
        },
        "version": "0.9.28",
        "preRelease": false,
        "pinned": false,
        "installed": true
    },
    {
        "identifier": {
            "id": "auchenberg.vscode-browser-preview",
            "uuid": "126e4983-78cb-433f-a67c-9b07c39c7802"
        },
        "version": "0.7.2",
        "preRelease": false,
        "pinned": false,
        "installed": true
    },
    {
        "identifier": {
            "id": "beardedbear.beardedicons",
            "uuid": "1b7bdcac-09ba-421c-bdde-081928177de7"
        },
        "version": "1.6.0",
        "preRelease": false,
        "pinned": false,
        "installed": true
    },
    {
        "identifier": {
            "id": "beardedbear.beardedtheme",
            "uuid": "d1818e93-bccc-4812-8b8b-37aabc5a7a94"
        },
        "version": "8.0.0",
        "preRelease": false,
        "pinned": false,
        "installed": true
    },
    {
        "identifier": {
            "id": "bestvow.css-compressor",
            "uuid": "fbc665b2-ea7f-4570-a851-a7b2a4fecdf1"
        },
        "version": "0.0.2",
        "preRelease": false,
        "pinned": false,
        "disabled": true,
        "installed": true
    },
    {
        "identifier": {
            "id": "binyamingreen.backlinks-panel",
            "uuid": "65ee61c4-d8b5-4749-bd78-72f5fdd2d8a7"
        },
        "version": "0.2.2",
        "preRelease": false,
        "pinned": false,
        "installed": true
    },
    {
        "identifier": {
            "id": "bruce.rona",
            "uuid": "ffc6e411-2d59-42e5-9037-9343bf82c253"
        },
        "version": "1.0.9",
        "preRelease": false,
        "pinned": false,
        "installed": true
    },
    {
        "identifier": {
            "id": "burkeholland.simple-timer",
            "uuid": "e97fcb71-fd08-435c-97c3-1788d4ab5b84"
        },
        "version": "1.0.1",
        "preRelease": false,
        "pinned": false,
        "installed": true
    },
    {
        "identifier": {
            "id": "cacher.cacher-vscode",
            "uuid": "9d95592f-ed80-4788-bc0a-5bf361eb5463"
        },
        "version": "1.1.1",
        "preRelease": false,
        "pinned": false,
        "disabled": true,
        "installed": true
    },
    {
        "identifier": {
            "id": "callum-booth.templater",
            "uuid": "7549bef8-4b6a-453f-99e2-b07863a81c30"
        },
        "version": "1.1.0",
        "preRelease": false,
        "pinned": false,
        "disabled": true,
        "installed": true
    },
    {
        "identifier": {
            "id": "ciiqr.note-syntax",
            "uuid": "749f4479-423c-4b7c-be90-c7599a7fc768"
        },
        "version": "1.2.0",
        "preRelease": false,
        "pinned": false,
        "installed": true
    },
    {
        "identifier": {
            "id": "ckolkman.vscode-postgres",
            "uuid": "b200e7e8-4217-4da9-b8db-5606db56d867"
        },
        "version": "1.4.0",
        "preRelease": false,
        "pinned": false,
        "installed": true
    },
    {
        "identifier": {
            "id": "codezombiech.gitignore",
            "uuid": "3e891cf9-53cb-49a3-8d01-8f0b1f0afb29"
        },
        "version": "0.9.0",
        "preRelease": false,
        "pinned": false,
        "installed": true
    },
    {
        "identifier": {
            "id": "coenraads.bracket-pair-colorizer-2",
            "uuid": "5a6e2b21-1d61-4acd-b31b-907f9c23f18a"
        },
        "version": "0.2.4",
        "preRelease": false,
        "pinned": false,
        "installed": true
    },
    {
        "identifier": {
            "id": "compulim.vscode-mocha",
            "uuid": "dc696ff7-0c78-4470-9d47-9ddc28cc35a0"
        },
        "version": "0.1.1",
        "preRelease": false,
        "pinned": false,
        "installed": true
    },
    {
        "identifier": {
            "id": "connorshea.vscode-test-explorer-status-bar",
            "uuid": "4bbfd0d5-c934-445f-ab56-1b2167378db2"
        },
        "version": "1.2.0",
        "preRelease": false,
        "pinned": false,
        "installed": true
    },
    {
        "identifier": {
            "id": "cosminalco.pomodoro",
            "uuid": "2a8dc6fe-3e78-4586-b03b-7611dbdab598"
        },
        "version": "1.1.0",
        "preRelease": false,
        "pinned": false,
        "installed": true
    },
    {
        "identifier": {
            "id": "crystal-spider.jsdoc-generator",
            "uuid": "54c1b542-c59b-4691-8fa4-f964ed1b3268"
        },
        "version": "1.2.0",
        "preRelease": false,
        "pinned": false,
        "installed": true
    },
    {
        "identifier": {
            "id": "cyrilletuzi.angular-schematics",
            "uuid": "e0b91637-e16b-4a66-b531-4459c494f514"
        },
        "version": "5.3.1",
        "preRelease": false,
        "pinned": false,
        "installed": true
    },
    {
        "identifier": {
            "id": "danielehrhardt.ionic3-vs-ionview-snippets",
            "uuid": "62ca447b-37fd-4d14-a0f2-0c0361ce592f"
        },
        "version": "1.0.2",
        "preRelease": false,
        "pinned": false,
        "installed": true
    },
    {
        "identifier": {
            "id": "david-rickard.git-diff-and-merge-tool",
            "uuid": "ed6b358a-4167-4eb8-a07c-ec72cbdbc503"
        },
        "version": "1.0.5",
        "preRelease": false,
        "pinned": false,
        "installed": true
    },
    {
        "identifier": {
            "id": "dbaeumer.vscode-eslint",
            "uuid": "583b2b34-2c1e-4634-8c0b-0b82e283ea3a"
        },
        "version": "2.4.0",
        "preRelease": false,
        "pinned": false,
        "installed": true
    },
    {
        "identifier": {
            "id": "dendron.dendron",
            "uuid": "8e264a73-4cfc-4be1-8f4f-c6a4ede494a4"
        },
        "version": "0.119.0",
        "preRelease": false,
        "pinned": false,
        "installed": true
    },
    {
        "identifier": {
            "id": "dendron.dendron-markdown-preview-enhanced",
            "uuid": "35fe0500-af28-496d-a90e-e3d9113450f6"
        },
        "version": "0.10.57",
        "preRelease": false,
        "pinned": false,
        "installed": true
    },
    {
        "identifier": {
            "id": "dendron.dendron-markdown-shortcuts",
            "uuid": "dc14db92-c5a5-4e4c-a4bc-1d4ae6f4dbab"
        },
        "version": "0.12.1",
        "preRelease": false,
        "pinned": false,
        "installed": true
    },
    {
        "identifier": {
            "id": "dendron.dendron-paste-image",
            "uuid": "b08e77c9-221d-41a6-9668-59bc8fd04128"
        },
        "version": "1.1.1",
        "preRelease": false,
        "pinned": false,
        "installed": true
    },
    {
        "identifier": {
            "id": "dendron.dendron-snippet-maker",
            "uuid": "12187139-ba37-44a9-9d05-0890f4dcb117"
        },
        "version": "0.1.6",
        "preRelease": false,
        "pinned": false,
        "installed": true
    },
    {
        "identifier": {
            "id": "dionmunk.vscode-notes",
            "uuid": "7837012b-af9c-405a-b89c-e0de236a57a2"
        },
        "version": "1.1.0",
        "preRelease": false,
        "pinned": false,
        "installed": true
    },
    {
        "identifier": {
            "id": "donjayamanne.git-extension-pack",
            "uuid": "d23dc2c3-abed-47d8-9b22-7dd31c1f0ed9"
        },
        "version": "0.1.3",
        "preRelease": false,
        "pinned": false,
        "installed": true
    },
    {
        "identifier": {
            "id": "donjayamanne.githistory",
            "uuid": "5960f38e-0bbe-4644-8f9c-9c8824e82511"
        },
        "version": "0.6.20",
        "preRelease": false,
        "pinned": false,
        "installed": true
    },
    {
        "identifier": {
            "id": "dsznajder.es7-react-js-snippets",
            "uuid": "19804510-b475-4dae-b0f7-6ca08fd1af0c"
        },
        "version": "4.4.3",
        "preRelease": false,
        "pinned": false,
        "disabled": true,
        "installed": true
    },
    {
        "identifier": {
            "id": "dyno-nguyen.vscode-dynofileutils",
            "uuid": "aa7bebb5-7627-4fb6-b829-ddfaddc4e444"
        },
        "version": "1.5.0",
        "preRelease": false,
        "pinned": false,
        "installed": true
    },
    {
        "identifier": {
            "id": "editorconfig.editorconfig",
            "uuid": "f60a60a6-95ba-42d4-b41c-3d24c1b89588"
        },
        "version": "0.16.4",
        "preRelease": false,
        "pinned": false,
        "installed": true
    },
    {
        "identifier": {
            "id": "edsol.clickup",
            "uuid": "0662af23-afc5-4e4c-8dc7-8d002944ecc7"
        },
        "version": "0.1.2",
        "preRelease": false,
        "pinned": false,
        "installed": true
    },
    {
        "identifier": {
            "id": "eg2.vscode-npm-script",
            "uuid": "ae9e3eb0-3357-4cc0-90ee-598d2d384757"
        },
        "version": "0.3.29",
        "preRelease": false,
        "pinned": false,
        "installed": true
    },
    {
        "identifier": {
            "id": "ek-dev.encrypted-notes",
            "uuid": "3150c1b2-63d5-4656-80cf-8195f03b28dc"
        },
        "version": "1.0.6",
        "preRelease": false,
        "pinned": false,
        "installed": true
    },
    {
        "identifier": {
            "id": "eppz.eppz-code",
            "uuid": "fa63aa30-e63a-48b1-876d-562a57da717f"
        },
        "version": "1.2.52",
        "preRelease": false,
        "pinned": false,
        "disabled": true,
        "installed": true
    },
    {
        "identifier": {
            "id": "equinusocio.vsc-community-material-theme",
            "uuid": "bf8aa94a-4051-42fe-9bd1-2becad466fe7"
        },
        "version": "1.4.6",
        "preRelease": false,
        "pinned": false,
        "installed": true
    },
    {
        "identifier": {
            "id": "equinusocio.vsc-material-theme-icons",
            "uuid": "6959958f-be4d-42c4-8aa4-dc2c2f086b0a"
        },
        "version": "2.7.4",
        "preRelease": false,
        "pinned": false,
        "installed": true
    },
    {
        "identifier": {
            "id": "eservice-online.vs-sharper",
            "uuid": "842fbbac-70cb-42d6-a2e3-a9af9409fc25"
        },
        "version": "0.2.0",
        "preRelease": false,
        "pinned": false,
        "installed": true
    },
    {
        "identifier": {
            "id": "fabiospampinato.vscode-projects-plus",
            "uuid": "e442b777-54e3-4192-a795-5e201b12f788"
        },
        "version": "1.24.0",
        "preRelease": false,
        "pinned": false,
        "installed": true
    },
    {
        "identifier": {
            "id": "fabiospampinato.vscode-projects-plus-todo-plus",
            "uuid": "978e4e07-69d3-4b5f-acfc-59c9634ccc27"
        },
        "version": "1.6.10",
        "preRelease": false,
        "pinned": false,
        "installed": true
    },
    {
        "identifier": {
            "id": "fabiospampinato.vscode-todo-plus",
            "uuid": "0661e679-8a32-433e-baeb-8980f53edb55"
        },
        "version": "4.19.1",
        "preRelease": false,
        "pinned": false,
        "installed": true
    },
    {
        "identifier": {
            "id": "file-icons.file-icons",
            "uuid": "43335a8d-5929-408b-874a-65f08362642c"
        },
        "version": "1.0.29",
        "preRelease": false,
        "pinned": false,
        "installed": true
    },
    {
        "identifier": {
            "id": "firefox-devtools.vscode-firefox-debug",
            "uuid": "c5f4d87f-a524-462c-ac01-923eb19cf3e9"
        },
        "version": "2.9.8",
        "preRelease": false,
        "pinned": false,
        "installed": true
    },
    {
        "identifier": {
            "id": "fivethree.vscode-ionic-snippets",
            "uuid": "cdc86be7-fd82-4e06-9306-934b76cf2ae0"
        },
        "version": "2.2.2",
        "preRelease": false,
        "pinned": false,
        "installed": true
    },
    {
        "identifier": {
            "id": "fordlabs.flux",
            "uuid": "8fd3c05f-6905-441c-96fb-c7d2b5677d80"
        },
        "version": "0.0.1",
        "preRelease": false,
        "pinned": false,
        "installed": true
    },
    {
        "identifier": {
            "id": "formulahendry.auto-close-tag",
            "uuid": "d3836729-9cc1-42c1-b2af-d50071f57d29"
        },
        "version": "0.5.14",
        "preRelease": false,
        "pinned": false,
        "installed": true
    },
    {
        "identifier": {
            "id": "formulahendry.auto-rename-tag",
            "uuid": "6e440e71-8ed9-4f25-bb78-4b13096b8a03"
        },
        "version": "0.1.10",
        "preRelease": false,
        "pinned": false,
        "installed": true
    },
    {
        "identifier": {
            "id": "foxundermoon.shell-format",
            "uuid": "5fb19573-2183-4cf2-b53d-0fb869dae7ae"
        },
        "version": "7.2.5",
        "preRelease": false,
        "pinned": false,
        "installed": true
    },
    {
        "identifier": {
            "id": "frenya.vscode-coffeebreak",
            "uuid": "b7e2c418-f4da-4c05-9f03-c1697c4bf206"
        },
        "version": "0.3.1",
        "preRelease": false,
        "pinned": false,
        "disabled": true,
        "installed": true
    },
    {
        "identifier": {
            "id": "frenya.vscode-coffeebreak-todoist",
            "uuid": "dd667f1b-b89a-44ca-a7d3-21ee68a02458"
        },
        "version": "0.8.0",
        "preRelease": false,
        "pinned": false,
        "disabled": true,
        "installed": true
    },
    {
        "identifier": {
            "id": "gencer.html-slim-scss-css-class-completion",
            "uuid": "07734f09-9218-443a-abfa-a9a823d2c25a"
        },
        "version": "1.7.8",
        "preRelease": false,
        "pinned": false,
        "installed": true
    },
    {
        "identifier": {
            "id": "gio00.fish",
            "uuid": "705118ce-5254-4918-b171-31043e78746f"
        },
        "version": "0.0.4",
        "preRelease": false,
        "pinned": false,
        "installed": true
    },
    {
        "identifier": {
            "id": "github.codespaces",
            "uuid": "4023d3e5-c840-4cdd-8b54-51c77548aa3f"
        },
        "version": "1.14.3",
        "preRelease": false,
        "pinned": false
    },
    {
        "identifier": {
            "id": "github.remotehub",
            "uuid": "fc7d7e85-2e58-4c1c-97a3-2172ed9a77cd"
        },
        "version": "0.50.0",
        "preRelease": false,
        "pinned": false,
        "installed": true
    },
    {
        "identifier": {
            "id": "github.vscode-pull-request-github",
            "uuid": "69ddd764-339a-4ecc-97c1-9c4ece58e36d"
        },
        "version": "0.62.0",
        "preRelease": false,
        "pinned": false,
        "installed": true
    },
    {
        "identifier": {
            "id": "gitlab.gitlab-workflow",
            "uuid": "01826860-d71c-4734-9cf8-dc1c07baa5f9"
        },
        "version": "3.60.0",
        "preRelease": false,
        "pinned": false,
        "installed": true
    },
    {
        "identifier": {
            "id": "gitpod.gitpod-remote-ssh",
            "uuid": "6894804a-24ab-45d9-9eca-a7ad4cf4cc40"
        },
        "version": "0.0.41",
        "preRelease": false,
        "pinned": false,
        "installed": true
    },
    {
        "identifier": {
            "id": "gordonlarrigan.vscode-kanbn",
            "uuid": "93020937-393d-486c-a2c5-c917f12d2779"
        },
        "version": "0.11.0",
        "preRelease": false,
        "pinned": false,
        "installed": true
    },
    {
        "identifier": {
            "id": "grapecity.gc-excelviewer",
            "uuid": "8bb12ae3-73f8-40cf-86b7-4bd5729c6238"
        },
        "version": "4.2.57",
        "preRelease": false,
        "pinned": false,
        "installed": true
    },
    {
        "identifier": {
            "id": "gruntfuggly.todo-tree",
            "uuid": "261cac81-cd7b-4555-bb41-0c2d2bcd3e70"
        },
        "version": "0.0.224",
        "preRelease": false,
        "pinned": false,
        "installed": true
    },
    {
        "identifier": {
            "id": "hangxingliu.vscode-nginx-conf-hint",
            "uuid": "c3d3e8fb-c61d-4edf-8fb8-32298bc763f9"
        },
        "version": "0.3.0",
        "preRelease": false,
        "pinned": false,
        "installed": true
    },
    {
        "identifier": {
            "id": "hbenl.vscode-mocha-test-adapter",
            "uuid": "16c44458-f8a5-434f-9d65-b658dea51b0f"
        },
        "version": "2.14.1",
        "preRelease": false,
        "pinned": false,
        "installed": true
    },
    {
        "identifier": {
            "id": "hbenl.vscode-test-explorer",
            "uuid": "ff96f1b4-a4b8-45ef-8ecf-c232c0cb75c8"
        },
        "version": "2.21.1",
        "preRelease": false,
        "pinned": false,
        "installed": true
    },
    {
        "identifier": {
            "id": "hediet.vscode-drawio",
            "uuid": "ea6a6046-2132-421f-a984-664909fcf0b8"
        },
        "version": "1.6.6",
        "preRelease": false,
        "pinned": false,
        "installed": true
    },
    {
        "identifier": {
            "id": "henryhediff.obsidian-code",
            "uuid": "b8c73c0a-a013-401e-bd6d-f7f85a7cd740"
        },
        "version": "0.1.4",
        "preRelease": false,
        "pinned": false,
        "installed": true
    },
    {
        "identifier": {
            "id": "hex-ci.stylelint-plus",
            "uuid": "bfde0096-d13f-4161-9bed-32a535438701"
        },
        "version": "0.56.6",
        "preRelease": false,
        "pinned": false,
        "installed": true
    },
    {
        "identifier": {
            "id": "hookyqr.beautify",
            "uuid": "697255a9-3f36-44c8-b084-d3b91edfb23a"
        },
        "version": "1.5.0",
        "preRelease": false,
        "pinned": false,
        "disabled": true,
        "installed": true
    },
    {
        "identifier": {
            "id": "hosho.solidity-debugger",
            "uuid": "488c2e27-8f31-422d-936d-1aa71e94b76a"
        },
        "version": "0.2.1",
        "preRelease": false,
        "pinned": false,
        "installed": true
    },
    {
        "identifier": {
            "id": "humao.rest-client",
            "uuid": "dda49fd5-1f3b-4d25-bf61-4fc41905ede5"
        },
        "version": "0.25.1",
        "preRelease": false,
        "pinned": false,
        "installed": true
    },
    {
        "identifier": {
            "id": "imkrishnaagrawal.vnotes",
            "uuid": "2cfd57ca-61c0-46e1-8686-4d3e74240b0a"
        },
        "version": "0.0.1",
        "preRelease": false,
        "pinned": false,
        "disabled": true,
        "installed": true
    },
    {
        "identifier": {
            "id": "ipedrazas.kubernetes-snippets",
            "uuid": "1bf2afc4-296d-482b-89ff-3318c474a2a8"
        },
        "version": "0.1.9",
        "preRelease": false,
        "pinned": false,
        "installed": true
    },
    {
        "identifier": {
            "id": "jannchie.codetime",
            "uuid": "79d8e45d-5812-4b3d-8f14-f31b8ebb9570"
        },
        "version": "0.3.0",
        "preRelease": false,
        "pinned": false,
        "installed": true
    },
    {
        "identifier": {
            "id": "jgw9617.ionic2-vscode",
            "uuid": "4b9a7008-5c0e-401c-84a8-af85a82a806f"
        },
        "version": "1.0.0",
        "preRelease": false,
        "pinned": false,
        "installed": true
    },
    {
        "identifier": {
            "id": "joaompinto.vscode-graphviz",
            "uuid": "9503bc2d-f581-462c-86fd-1dddf4857e66"
        },
        "version": "0.0.6",
        "preRelease": false,
        "pinned": false,
        "installed": true
    },
    {
        "identifier": {
            "id": "johnpapa.angular2",
            "uuid": "214cbfb9-7c06-4467-bad4-357ae83eb587"
        },
        "version": "13.0.0",
        "preRelease": false,
        "pinned": false,
        "installed": true
    },
    {
        "identifier": {
            "id": "jq-syntax-highlighting.jq-syntax-highlighting",
            "uuid": "06f7435c-f0c3-4f34-a527-5b29dc11e433"
        },
        "version": "0.0.2",
        "preRelease": false,
        "pinned": false,
        "installed": true
    },
    {
        "identifier": {
            "id": "jsaulou.theme-by-language",
            "uuid": "e5a47a72-5bb1-4139-8080-9c57b37a7e8a"
        },
        "version": "1.2.1",
        "preRelease": false,
        "pinned": false,
        "installed": true
    },
    {
        "identifier": {
            "id": "juanblanco.solidity",
            "uuid": "25baab03-fe9a-40c7-b683-55c9a0a92480"
        },
        "version": "0.0.149",
        "preRelease": false,
        "pinned": false,
        "installed": true
    },
    {
        "identifier": {
            "id": "julianiaquinandi.nvim-ui-modifier",
            "uuid": "8bc0b3c7-1630-4ff9-bc52-568e38ad699f"
        },
        "version": "0.1.3",
        "preRelease": false,
        "pinned": false,
        "installed": true
    },
    {
        "identifier": {
            "id": "karunamurti.haml",
            "uuid": "31dab038-d2f7-47c2-894e-5c35684dbd0e"
        },
        "version": "1.4.1",
        "preRelease": false,
        "pinned": false,
        "installed": true
    },
    {
        "identifier": {
            "id": "kavod-io.vscode-jest-test-adapter",
            "uuid": "64dae992-51a7-47e2-a399-4c57c3cebae9"
        },
        "version": "0.8.1",
        "preRelease": false,
        "pinned": false,
        "disabled": true,
        "installed": true
    },
    {
        "identifier": {
            "id": "kelvin.vscode-sshfs",
            "uuid": "bb9fc30a-080a-40bc-a792-08cc4ed66bcd"
        },
        "version": "1.26.0",
        "preRelease": false,
        "pinned": false,
        "installed": true
    },
    {
        "identifier": {
            "id": "kortina.vscode-markdown-notes",
            "uuid": "dde258e9-793b-4377-a4fe-9d54cbd28ea2"
        },
        "version": "0.0.26",
        "preRelease": false,
        "pinned": false,
        "installed": true
    },
    {
        "identifier": {
            "id": "lehni.vscode-fix-checksums",
            "uuid": "4ecd3cb4-21a4-48d5-b9ae-f5d9b1882fde"
        },
        "version": "1.1.0",
        "preRelease": false,
        "pinned": false,
        "installed": true
    },
    {
        "identifier": {
            "id": "littlefoxteam.vscode-python-test-adapter",
            "uuid": "912fd5ae-d9f2-4c31-8a0b-d7fb669afbb4"
        },
        "version": "0.7.1",
        "preRelease": false,
        "pinned": false,
        "disabled": true,
        "installed": true
    },
    {
        "identifier": {
            "id": "loiane.ionic-extension-pack",
            "uuid": "23b803c1-5ec7-480f-a88b-352a41d18592"
        },
        "version": "0.3.0",
        "preRelease": false,
        "pinned": false,
        "installed": true
    },
    {
        "identifier": {
            "id": "lonefy.vscode-js-css-html-formatter",
            "uuid": "56c1f2d5-5d32-4a45-93e4-b1429142ef1f"
        },
        "version": "0.2.3",
        "preRelease": false,
        "pinned": false,
        "disabled": true,
        "installed": true
    },
    {
        "identifier": {
            "id": "lunuan.kubernetes-templates",
            "uuid": "d45a266f-d304-4216-8d89-52091ce78376"
        },
        "version": "1.3.1",
        "preRelease": false,
        "pinned": false,
        "installed": true
    },
    {
        "identifier": {
            "id": "markis.code-coverage",
            "uuid": "ed00e895-9cee-4f55-abb9-a5b77409b61d"
        },
        "version": "1.8.6",
        "preRelease": false,
        "pinned": false,
        "installed": true
    },
    {
        "identifier": {
            "id": "maxfieldwalker.vscode-timer",
            "uuid": "c6f2d4ea-5f3c-4fea-ab2f-4d3443b81cf5"
        },
        "version": "1.0.0",
        "preRelease": false,
        "pinned": false,
        "installed": true
    },
    {
        "identifier": {
            "id": "mechatroner.rainbow-csv",
            "uuid": "3792588c-3d35-442d-91ea-fe6a755e8155"
        },
        "version": "3.6.0",
        "preRelease": false,
        "pinned": false,
        "installed": true
    },
    {
        "identifier": {
            "id": "meganmott.annoying-pomodoro",
            "uuid": "0d85f375-0378-4a39-9ab5-e44ea01447ba"
        },
        "version": "0.0.1",
        "preRelease": false,
        "pinned": false,
        "installed": true
    },
    {
        "identifier": {
            "id": "melihaltintas.svelte-format",
            "uuid": "a69a6c4c-9cc7-4c1a-a3c9-85fcad7db563"
        },
        "version": "0.0.7",
        "preRelease": false,
        "pinned": false,
        "installed": true
    },
    {
        "identifier": {
            "id": "mhutchie.git-graph",
            "uuid": "438221f8-1107-4ccd-a6fe-f3b7fe0856b7"
        },
        "version": "1.30.0",
        "preRelease": false,
        "pinned": false,
        "installed": true
    },
    {
        "identifier": {
            "id": "mikestead.dotenv",
            "uuid": "532533c9-a894-4a58-9eee-bbfbe7c06f71"
        },
        "version": "1.0.1",
        "preRelease": false,
        "pinned": false,
        "installed": true
    },
    {
        "identifier": {
            "id": "mindaro-dev.file-downloader",
            "uuid": "c5f9ea77-0f11-4bd6-9736-341deca7a35c"
        },
        "version": "1.0.12",
        "preRelease": false,
        "pinned": false,
        "installed": true
    },
    {
        "identifier": {
            "id": "mindaro.mindaro",
            "uuid": "a5fe6018-ad8a-4dca-8dee-0ababc73d077"
        },
        "version": "2.0.120230327",
        "preRelease": false,
        "pinned": false,
        "disabled": true,
        "installed": true
    },
    {
        "identifier": {
            "id": "mohsen1.prettify-json",
            "uuid": "67e66172-30c7-4478-8f5d-6eac4ae755dc"
        },
        "version": "0.0.3",
        "preRelease": false,
        "pinned": false,
        "installed": true
    },
    {
        "identifier": {
            "id": "monokai.theme-monokai-pro-vscode",
            "uuid": "f5d7ffda-c1d6-4070-ba80-803c705a1ee6"
        },
        "version": "1.2.0",
        "preRelease": false,
        "pinned": false,
        "installed": true
    },
    {
        "identifier": {
            "id": "mrmlnc.vscode-json5",
            "uuid": "d6c6d30c-10a6-42fe-85ec-41dcb313349d"
        },
        "version": "1.0.0",
        "preRelease": false,
        "pinned": false,
        "installed": true
    },
    {
        "identifier": {
            "id": "ms-dotnettools.csharp",
            "uuid": "d0bfc4ab-1d3a-4487-8782-7cf6027b4fff"
        },
        "version": "1.25.4",
        "preRelease": false,
        "pinned": false,
        "installed": true
    },
    {
        "identifier": {
            "id": "ms-kubernetes-tools.kind-vscode",
            "uuid": "94b7beb7-58fd-42e8-9a43-c5dbf4ce1b73"
        },
        "version": "0.0.3",
        "preRelease": false,
        "pinned": false,
        "installed": true
    },
    {
        "identifier": {
            "id": "ms-kubernetes-tools.vscode-kubernetes-tools",
            "uuid": "4837e4f3-1b01-4732-b1a6-daa57ef64cab"
        },
        "version": "1.3.11",
        "preRelease": false,
        "pinned": false,
        "installed": true
    },
    {
        "identifier": {
            "id": "ms-python.isort",
            "uuid": "4ad0ce32-ff3f-49f0-83b5-93e5dc00cfff"
        },
        "version": "2022.8.0",
        "preRelease": false,
        "pinned": false,
        "installed": true
    },
    {
        "identifier": {
            "id": "ms-toolsai.jupyter",
            "uuid": "6c2f1801-1e7f-45b2-9b5c-7782f1e076e8"
        },
        "version": "2023.3.1000892223",
        "preRelease": false,
        "pinned": false,
        "installed": true
    },
    {
        "identifier": {
            "id": "ms-toolsai.jupyter-keymap",
            "uuid": "9f6dc8db-620c-4844-b8c5-e74914f1be27"
        },
        "version": "1.1.0",
        "preRelease": false,
        "pinned": false,
        "installed": true
    },
    {
        "identifier": {
            "id": "ms-toolsai.jupyter-renderers",
            "uuid": "b15c72f8-d5fe-421a-a4f7-27ed9f6addbf"
        },
        "version": "1.0.15",
        "preRelease": false,
        "pinned": false,
        "installed": true
    },
    {
        "identifier": {
            "id": "ms-toolsai.vscode-jupyter-cell-tags",
            "uuid": "ab4fb32a-befb-4102-adf9-1652d0cd6a5e"
        },
        "version": "0.1.8",
        "preRelease": false,
        "pinned": false,
        "installed": true
    },
    {
        "identifier": {
            "id": "ms-toolsai.vscode-jupyter-slideshow",
            "uuid": "e153ca70-b543-4865-b4c5-b31d34185948"
        },
        "version": "0.1.5",
        "preRelease": false,
        "pinned": false,
        "installed": true
    },
    {
        "identifier": {
            "id": "ms-vscode-remote.remote-containers",
            "uuid": "93ce222b-5f6f-49b7-9ab1-a0463c6238df"
        },
        "version": "0.282.0",
        "preRelease": false,
        "pinned": false,
        "installed": true,
        "state": {
            "userConfirmedAttachToContainerRequiresTrust": true
        }
    },
    {
        "identifier": {
            "id": "ms-vscode-remote.remote-ssh",
            "uuid": "607fd052-be03-4363-b657-2bd62b83d28a"
        },
        "version": "0.96.0",
        "preRelease": false,
        "pinned": false,
        "installed": true
    },
    {
        "identifier": {
            "id": "ms-vscode-remote.remote-ssh-edit",
            "uuid": "bfeaf631-bcff-4908-93ed-fda4ef9a0c5c"
        },
        "version": "0.84.0",
        "preRelease": false,
        "pinned": false,
        "installed": true
    },
    {
        "identifier": {
            "id": "ms-vscode-remote.remote-wsl",
            "uuid": "f0c5397b-d357-4197-99f0-cb4202f22818"
        },
        "version": "0.75.1",
        "preRelease": false,
        "pinned": false,
        "installed": true
    },
    {
        "identifier": {
            "id": "ms-vscode-remote.vscode-remote-extensionpack",
            "uuid": "23d72dfc-8dd1-4e30-926e-8783b4378f13"
        },
        "version": "0.23.0",
        "preRelease": false,
        "pinned": false,
        "installed": true
    },
    {
        "identifier": {
            "id": "ms-vscode.anycode",
            "uuid": "af9ea409-7854-4abe-a19e-6700ee46ec34"
        },
        "version": "0.0.70",
        "preRelease": false,
        "pinned": false
    },
    {
        "identifier": {
            "id": "ms-vscode.anycode-c-sharp",
            "uuid": "a14f5278-8679-4213-bf29-213b94e89ba1"
        },
        "version": "0.0.5",
        "preRelease": false,
        "pinned": false
    },
    {
        "identifier": {
            "id": "ms-vscode.anycode-cpp",
            "uuid": "22ff1c2c-fe2c-4ba5-8fab-da82062231d7"
        },
        "version": "0.0.5",
        "preRelease": false,
        "pinned": false
    },
    {
        "identifier": {
            "id": "ms-vscode.anycode-go",
            "uuid": "3a1549d2-c4a1-4213-bcf1-f23b23f9f3e3"
        },
        "version": "0.0.5",
        "preRelease": false,
        "pinned": false
    },
    {
        "identifier": {
            "id": "ms-vscode.anycode-java",
            "uuid": "383e4b36-51e8-49c1-9223-306cc75ae2fa"
        },
        "version": "0.0.5",
        "preRelease": false,
        "pinned": false
    },
    {
        "identifier": {
            "id": "ms-vscode.anycode-kotlin",
            "uuid": "4a4d51cb-4dc6-4aa4-819a-af218fb298a7"
        },
        "version": "0.0.5",
        "preRelease": false,
        "pinned": false
    },
    {
        "identifier": {
            "id": "ms-vscode.anycode-php",
            "uuid": "f918e766-d9b4-478e-95ff-9fa947a1ffc1"
        },
        "version": "0.0.6",
        "preRelease": false,
        "pinned": false
    },
    {
        "identifier": {
            "id": "ms-vscode.anycode-python",
            "uuid": "e283de95-e641-4a4d-a9f9-645fc34bbe3f"
        },
        "version": "0.0.5",
        "preRelease": false,
        "pinned": false
    },
    {
        "identifier": {
            "id": "ms-vscode.anycode-rust",
            "uuid": "fefa61ca-8567-4643-b2c8-24db64849885"
        },
        "version": "0.0.6",
        "preRelease": false,
        "pinned": false
    },
    {
        "identifier": {
            "id": "ms-vscode.anycode-typescript",
            "uuid": "77b75f29-0ce5-4035-a5f8-1e220be03dca"
        },
        "version": "0.0.5",
        "preRelease": false,
        "pinned": false
    },
    {
        "identifier": {
            "id": "ms-vscode.azure-repos",
            "uuid": "25cfa506-1433-4595-a73f-61666807126d"
        },
        "version": "0.26.0",
        "preRelease": false,
        "pinned": false,
        "installed": true
    },
    {
        "identifier": {
            "id": "ms-vscode.cmake-tools",
            "uuid": "7c889349-8749-43d4-8b5e-08939936d7f4"
        },
        "version": "1.13.45",
        "preRelease": false,
        "pinned": false,
        "installed": true
    },
    {
        "identifier": {
            "id": "ms-vscode.js-debug",
            "uuid": "25629058-ddac-4e17-abba-74678e126c5d"
        },
        "version": "1.74.1",
        "preRelease": false,
        "pinned": false
    },
    {
        "identifier": {
            "id": "ms-vscode.js-debug-companion",
            "uuid": "99cb0b7f-7354-4278-b8da-6cc79972169d"
        },
        "version": "1.0.18",
        "preRelease": false,
        "pinned": false
    },
    {
        "identifier": {
            "id": "ms-vscode.live-server",
            "uuid": "4eae7368-ec63-429d-8449-57a7df5e2117"
        },
        "version": "0.4.7",
        "preRelease": false,
        "pinned": false,
        "installed": true
    },
    {
        "identifier": {
            "id": "ms-vscode.mono-debug",
            "uuid": "28dd5df5-9ecf-486c-b2e6-517483951691"
        },
        "version": "0.16.3",
        "preRelease": false,
        "pinned": false,
        "installed": true
    },
    {
        "identifier": {
            "id": "ms-vscode.remote-explorer",
            "uuid": "11858313-52cc-4e57-b3e4-d7b65281e34b"
        },
        "version": "0.2.0",
        "preRelease": false,
        "pinned": false,
        "installed": true
    },
    {
        "identifier": {
            "id": "ms-vscode.remote-repositories",
            "uuid": "cf5142f0-3701-4992-980c-9895a750addf"
        },
        "version": "0.32.0",
        "preRelease": false,
        "pinned": false
    },
    {
        "identifier": {
            "id": "ms-vscode.test-adapter-converter",
            "uuid": "47210ec2-0324-4cbb-9523-9dff02a5f9ec"
        },
        "version": "0.1.7",
        "preRelease": false,
        "pinned": false,
        "installed": true
    },
    {
        "identifier": {
            "id": "ms-vscode.vscode-js-profile-table",
            "uuid": "7e52b41b-71ad-457b-ab7e-0620f1fc4feb"
        },
        "version": "1.0.3",
        "preRelease": false,
        "pinned": false
    },
    {
        "identifier": {
            "id": "ms-vsliveshare.vsliveshare-audio",
            "uuid": "f38fdd1c-7ee2-47b1-90b9-77ecc90d4bff"
        },
        "version": "0.1.93",
        "preRelease": false,
        "pinned": false,
        "installed": true
    },
    {
        "identifier": {
            "id": "ms-vsliveshare.vsliveshare-pack",
            "uuid": "87caf16b-d487-45c0-877d-573fe319b015"
        },
        "version": "0.4.0",
        "preRelease": false,
        "pinned": false,
        "installed": true
    },
    {
        "identifier": {
            "id": "msjsdiag.debugger-for-chrome",
            "uuid": "1ec62ca5-d7f9-4ddb-a882-e8d018c0aefd"
        },
        "version": "4.13.0",
        "preRelease": false,
        "pinned": false,
        "disabled": true,
        "installed": true
    },
    {
        "identifier": {
            "id": "msysyamamoto.vscode-fluentd",
            "uuid": "3c116641-4743-4005-94cd-a5bc356730f3"
        },
        "version": "0.0.4",
        "preRelease": false,
        "pinned": false,
        "installed": true
    },
    {
        "identifier": {
            "id": "netcorext.uuid-generator",
            "uuid": "802d93e3-0926-4d33-8408-b00d92d6cd0c"
        },
        "version": "0.0.5",
        "preRelease": false,
        "pinned": false,
        "installed": true
    },
    {
        "identifier": {
            "id": "nicollasr.vscode-streamdeck",
            "uuid": "360be25d-96f0-4801-9c23-7f4cb6245686"
        },
        "version": "4.1.6",
        "preRelease": false,
        "pinned": false,
        "installed": true
    },
    {
        "identifier": {
            "id": "octref.vetur",
            "uuid": "2f5dd8cb-d251-4d70-abfe-ddebcb077483"
        },
        "version": "0.37.3",
        "preRelease": false,
        "pinned": false,
        "installed": true
    },
    {
        "identifier": {
            "id": "patrickmorgan.reactdocs",
            "uuid": "3366700c-5656-40b7-ad04-4fc6072c290a"
        },
        "version": "1.0.1",
        "preRelease": false,
        "pinned": false,
        "installed": true
    },
    {
        "identifier": {
            "id": "pcsoftware.readable",
            "uuid": "d4d30b4b-2369-47e5-8609-93b9753743d2"
        },
        "version": "2.0.2",
        "preRelease": false,
        "pinned": false,
        "installed": true
    },
    {
        "identifier": {
            "id": "pkief.material-product-icons",
            "uuid": "f797dacd-4e80-4f33-8b63-d665c0956013"
        },
        "version": "1.5.0",
        "preRelease": false,
        "pinned": false,
        "installed": true
    },
    {
        "identifier": {
            "id": "pkosta2006.rxjs-snippets",
            "uuid": "4a1916f0-d885-4028-8dd9-0bfa27d607be"
        },
        "version": "0.0.2",
        "preRelease": false,
        "pinned": false,
        "installed": true
    },
    {
        "identifier": {
            "id": "pomdtr.excalidraw-editor",
            "uuid": "3dc917d8-e986-4abf-8159-6fc2233995bd"
        },
        "version": "3.4.0",
        "preRelease": false,
        "pinned": false,
        "installed": true,
        "state": {}
    },
    {
        "identifier": {
            "id": "qwtel.sqlite-viewer",
            "uuid": "94fef082-6c2d-43ac-9540-6617b51a3a12"
        },
        "version": "0.1.5",
        "preRelease": false,
        "pinned": false,
        "installed": true
    },
    {
        "identifier": {
            "id": "rcore.rcore-unused-css-classes",
            "uuid": "3a94153c-971e-4ead-90a5-5399b38ab68b"
        },
        "version": "0.1.7",
        "preRelease": false,
        "pinned": false,
        "installed": true
    },
    {
        "identifier": {
            "id": "ria.elastic",
            "uuid": "45fef933-f1d9-4536-bf46-da5bfc3671dc"
        },
        "version": "0.13.3",
        "preRelease": false,
        "pinned": false,
        "installed": true
    },
    {
        "identifier": {
            "id": "ritwickdey.liveserver",
            "uuid": "b63c44fd-0457-4696-99e9-dbfdf70d77de"
        },
        "version": "5.7.9",
        "preRelease": false,
        "pinned": false,
        "installed": true,
        "state": {
            "liveServer.setup.version": "5.7.9"
        }
    },
    {
        "identifier": {
            "id": "robbowen.synthwave-vscode",
            "uuid": "e5fd2b56-1637-4d4f-8252-6c9d416f9a28"
        },
        "version": "0.1.15",
        "preRelease": false,
        "pinned": false,
        "installed": true
    },
    {
        "identifier": {
            "id": "rvest.vs-code-prettier-eslint",
            "uuid": "d4b06bd6-36a0-469f-be55-c0a73413b688"
        },
        "version": "5.1.0",
        "preRelease": false,
        "pinned": false,
        "installed": true
    },
    {
        "identifier": {
            "id": "saharavr.react-component-splitter",
            "uuid": "ac281cad-590e-4328-8024-38e0a7b9da05"
        },
        "version": "0.60.0",
        "preRelease": false,
        "pinned": false,
        "installed": true
    },
    {
        "identifier": {
            "id": "sallar.vscode-duotone-dark",
            "uuid": "344c4c0e-58d1-4c96-a8ec-7332addc037c"
        },
        "version": "0.3.3",
        "preRelease": false,
        "pinned": false,
        "installed": true
    },
    {
        "identifier": {
            "id": "sdras.vue-vscode-snippets",
            "uuid": "c8d95916-cf54-455f-b324-cbd887b7d3a8"
        },
        "version": "3.1.1",
        "preRelease": false,
        "pinned": false,
        "installed": true
    },
    {
        "identifier": {
            "id": "sidthesloth.html5-boilerplate",
            "uuid": "f45dc69c-8d62-4ea1-b01f-3ab90854acb6"
        },
        "version": "1.1.1",
        "preRelease": false,
        "pinned": false,
        "installed": true
    },
    {
        "identifier": {
            "id": "skyapps.fish-vscode",
            "uuid": "b78d2f2b-8801-40a5-ae88-27d420197d49"
        },
        "version": "0.2.1",
        "preRelease": false,
        "pinned": false,
        "installed": true
    },
    {
        "identifier": {
            "id": "softwaredotcom.editor-ops",
            "uuid": "2ccd7a49-bf02-4536-9aeb-b82e245962d0"
        },
        "version": "1.1.3",
        "preRelease": false,
        "pinned": false,
        "installed": true
    },
    {
        "identifier": {
            "id": "softwaredotcom.swdc-100-days-of-code",
            "uuid": "c59e0be1-db65-4723-8c8e-5d96ebdbc3e3"
        },
        "version": "1.2.1",
        "preRelease": false,
        "pinned": false,
        "installed": true
    },
    {
        "identifier": {
            "id": "stateful.issue-explorer",
            "uuid": "93d26ab1-d162-486e-8702-3d5075c7098c"
        },
        "version": "1.0.5",
        "preRelease": false,
        "pinned": false,
        "installed": true
    },
    {
        "identifier": {
            "id": "stateful.marquee",
            "uuid": "c64f81d3-a4bd-4afc-b116-31a5f58a0c11"
        },
        "version": "3.3.0",
        "preRelease": false,
        "pinned": false,
        "installed": true
    },
    {
        "identifier": {
            "id": "stateful.stable",
            "uuid": "4997da21-cad0-4af4-8706-0010564c04b6"
        },
        "version": "0.8.2",
        "preRelease": false,
        "pinned": false,
        "installed": true
    },
    {
        "identifier": {
            "id": "steoates.autoimport",
            "uuid": "70378119-1d85-4935-9733-0298c7a369a2"
        },
        "version": "1.5.4",
        "preRelease": false,
        "pinned": false,
        "installed": true
    },
    {
        "identifier": {
            "id": "syler.vscode-haml-formatter",
            "uuid": "895e18fe-f822-47b1-b19a-f78a7e096af7"
        },
        "version": "0.0.1",
        "preRelease": false,
        "pinned": false,
        "installed": true
    },
    {
        "identifier": {
            "id": "team-sapling.sapling",
            "uuid": "eba781d5-c5b1-4858-b761-4ebb0e780354"
        },
        "version": "1.2.0",
        "preRelease": false,
        "pinned": false,
        "installed": true
    },
    {
        "identifier": {
            "id": "thavarajan.ionic2",
            "uuid": "aa549723-f85b-4d92-a3e0-37450ede0f9d"
        },
        "version": "3.0.2",
        "preRelease": false,
        "pinned": false,
        "installed": true
    },
    {
        "identifier": {
            "id": "tintinweb.graphviz-interactive-preview",
            "uuid": "946ca9d7-b1d0-405d-b076-107880317deb"
        },
        "version": "0.3.5",
        "preRelease": false,
        "pinned": false,
        "installed": true
    },
    {
        "identifier": {
            "id": "titiaiev.vue-docs",
            "uuid": "57d4d7e5-d45c-48a7-8b2a-ffb5d92e0e28"
        },
        "version": "1.0.2",
        "preRelease": false,
        "pinned": false,
        "installed": true
    },
    {
        "identifier": {
            "id": "tsandall.opa",
            "uuid": "ab758a0c-5cb5-417e-99bf-12a6e16bb148"
        },
        "version": "0.12.1",
        "preRelease": false,
        "pinned": false,
        "installed": true
    },
    {
        "identifier": {
            "id": "twounderscorez.vscode-websearch",
            "uuid": "278bc1bf-f5e0-4130-9f70-ab502f948d54"
        },
        "version": "1.5.0",
        "preRelease": false,
        "pinned": false,
        "installed": true
    },
    {
        "identifier": {
            "id": "twxs.cmake",
            "uuid": "2be7cf14-2603-402e-9771-fd79df83cdf8"
        },
        "version": "0.0.17",
        "preRelease": false,
        "pinned": false,
        "installed": true
    },
    {
        "identifier": {
            "id": "vadimcn.vscode-lldb",
            "uuid": "bee31e34-a44b-4a76-9ec2-e9fd1439a0f6"
        },
        "version": "1.9.0",
        "preRelease": false,
        "pinned": false,
        "installed": true
    },
    {
        "identifier": {
            "id": "vangware.dark-plus-material",
            "uuid": "c4e31168-d200-4020-ae9e-1aa7b76d2c52"
        },
        "version": "3.1.3",
        "preRelease": false,
        "pinned": false,
        "installed": true
    },
    {
        "identifier": {
            "id": "vayan.haml",
            "uuid": "3d48b57c-1cf7-41d3-858c-2e6d926f2960"
        },
        "version": "1.0.1",
        "preRelease": false,
        "pinned": false,
        "installed": true
    },
    {
        "identifier": {
            "id": "vintharas.learn-vim",
            "uuid": "159d930e-fdd0-42de-bbf8-5f62686e83a7"
        },
        "version": "0.0.28",
        "preRelease": false,
        "pinned": false,
        "installed": true
    },
    {
        "identifier": {
            "id": "vscodevim.vim",
            "uuid": "d96e79c6-8b25-4be3-8545-0e0ecefcae03"
        },
        "version": "1.24.3",
        "preRelease": false,
        "pinned": false,
        "disabled": true,
        "installed": true
    },
    {
        "identifier": {
            "id": "vsls-contrib.codetour",
            "uuid": "1d9b1776-4188-4b43-b23f-bab3d47537e9"
        },
        "version": "0.0.59",
        "preRelease": false,
        "pinned": false,
        "installed": true
    },
    {
        "identifier": {
            "id": "wix.vscode-import-cost",
            "uuid": "c46b0018-f317-4b6c-a785-d2039b27338f"
        },
        "version": "3.3.0",
        "preRelease": false,
        "pinned": false,
        "installed": true
    },
    {
        "identifier": {
            "id": "yangduong.timer",
            "uuid": "8e6cc53a-1b0c-4f03-b082-e2f175566120"
        },
        "version": "0.0.2",
        "preRelease": false,
        "pinned": false,
        "installed": true
    },
    {
        "identifier": {
            "id": "youssef.viow",
            "uuid": "2ac9e6ab-e4f6-49ef-9f5a-7a711b3d5644"
        },
        "version": "0.3.3",
        "preRelease": false,
        "pinned": false,
        "installed": true
    },
    {
        "identifier": {
            "id": "yzhang.markdown-all-in-one",
            "uuid": "98790d67-10fa-497c-9113-f6c7489207b2"
        },
        "version": "3.5.1",
        "preRelease": false,
        "pinned": false,
        "installed": true
    },
    {
        "identifier": {
            "id": "ziyasal.vscode-open-in-github",
            "uuid": "1d4d80c9-0d33-48a1-88a8-19ff80bc8e2a"
        },
        "version": "1.3.6",
        "preRelease": false,
        "pinned": false,
        "installed": true
    }
]